[
  {
    "name": "Explorador principiante",
    "criteriaUrl": "https://cientopolis.lifia.info.unlp.edu.ar/galaxy-conqueror/badges/explorador-principiante",
    "description": "Se entrega al comienzo del juego",
    "imageUrl": "explorador-principiante.png",
    "criteria": [
      {
        "id": 1,
        "description": "points earned required",
        "required": 1,
        "note": "0"
      },
      {
        "id": 2,
        "description": "aliens hunted required",
        "required": 1,
        "note": "0"
      },
      {
        "id": 3,
        "description": "votes required",
        "required": 1,
        "note": "0"
      },
      {
        "id": 4,
        "description": "galaxies marked required",
        "required": 1,
        "note": "0"
      },
      {
        "id": 5,
        "description": "galaxies discovered required",
        "required": 1,
        "note": "0"
      }
    ]
  },
  {
    "name": "Escudero estelar",
    "criteriaUrl": "https://cientopolis.lifia.info.unlp.edu.ar/galaxy-conqueror/badges/escudero-estelar",
    "description": "Se entrega a un jugador que ha capturado 5 extraterrestres",
    "imageUrl": "escudero-estelar.png",
    "criteria": [
      {
        "id": 1,
        "description": "points earned required",
        "required": 1,
        "note": "0"
      },
      {
        "id": 2,
        "description": "aliens hunted required",
        "required": 1,
        "note": "5"
      },
      {
        "id": 3,
        "description": "votes required",
        "required": 1,
        "note": "0"
      },
      {
        "id": 4,
        "description": "galaxies marked required",
        "required": 1,
        "note": "0"
      },
      {
        "id": 5,
        "description": "galaxies discovered required",
        "required": 1,
        "note": "0"
      }
    ]
  },
  {
    "name": "Cadete espacial",
    "criteriaUrl": "https://cientopolis.lifia.info.unlp.edu.ar/galaxy-conqueror/badges/cadete-espacial",
    "description": "Se entrega a un jugador que ha capturado 8 extraterrestres y ha votado 2 galaxias candidatas",
    "imageUrl": "cadete-espacial.png",
    "criteria": [
      {
        "id": 1,
        "description": "points earned required",
        "required": 1,
        "note": "0"
      },
      {
        "id": 2,
        "description": "aliens hunted required",
        "required": 1,
        "note": "8"
      },
      {
        "id": 3,
        "description": "votes required",
        "required": 1,
        "note": "2"
      },
      {
        "id": 4,
        "description": "galaxies marked required",
        "required": 1,
        "note": "0"
      },
      {
        "id": 5,
        "description": "galaxies discovered required",
        "required": 1,
        "note": "0"
      }
    ]
  },
  {
    "name": "Explorador habilidoso",
    "criteriaUrl": "https://cientopolis.lifia.info.unlp.edu.ar/galaxy-conqueror/badges/explorador-habilidoso",
    "description": "Se entrega a un jugador que ha capturado 8 extraterrestres y ha votado 5 galaxias candidatas",
    "imageUrl": "explorador-habilidoso.png",
    "criteria": [
      {
        "id": 1,
        "description": "points earned required",
        "required": 1,
        "note": "0"
      },
      {
        "id": 2,
        "description": "aliens hunted required",
        "required": 1,
        "note": "8"
      },
      {
        "id": 3,
        "description": "votes required",
        "required": 1,
        "note": "5"
      },
      {
        "id": 4,
        "description": "galaxies marked required",
        "required": 1,
        "note": "0"
      },
      {
        "id": 5,
        "description": "galaxies discovered required",
        "required": 1,
        "note": "0"
      }
    ]
  },
  {
    "name": "Observador nato",
    "criteriaUrl": "https://cientopolis.lifia.info.unlp.edu.ar/galaxy-conqueror/badges/observador-nato",
    "description": "Se entrega a un jugador que ha capturado 15 extraterrestres, ha votado 5 galaxias candidatas y ha marcado 1 galaxia candidata",
    "imageUrl": "observador-nato.png",
    "criteria": [
      {
        "id": 1,
        "description": "points earned required",
        "required": 1,
        "note": "0"
      },
      {
        "id": 2,
        "description": "aliens hunted required",
        "required": 1,
        "note": "15"
      },
      {
        "id": 3,
        "description": "votes required",
        "required": 1,
        "note": "5"
      },
      {
        "id": 4,
        "description": "galaxies marked required",
        "required": 1,
        "note": "1"
      },
      {
        "id": 5,
        "description": "galaxies discovered required",
        "required": 1,
        "note": "0"
      }
    ]
  },
  {
    "name": "Cosmonauta destacado",
    "criteriaUrl": "https://cientopolis.lifia.info.unlp.edu.ar/galaxy-conqueror/badges/cosmonauta-destacado",
    "description": "Se entrega a un jugador que ha capturado 15 extraterrestres, ha votado 8 galaxias candidatas, ha marcado 1 galaxia candidata, ha conquistado 1 galaxia y ha conseguido 500 puntos",
    "imageUrl": "cosmonauta-destacado.png",
    "criteria": [
      {
        "id": 1,
        "description": "points earned required",
        "required": 1,
        "note": "500"
      },
      {
        "id": 2,
        "description": "aliens hunted required",
        "required": 1,
        "note": "15"
      },
      {
        "id": 3,
        "description": "votes required",
        "required": 1,
        "note": "8"
      },
      {
        "id": 4,
        "description": "galaxies marked required",
        "required": 1,
        "note": "1"
      },
      {
        "id": 5,
        "description": "galaxies discovered required",
        "required": 1,
        "note": "1"
      }
    ]
  },
  {
    "name": "Corsario gal&aacute;ctico",
    "criteriaUrl": "https://cientopolis.lifia.info.unlp.edu.ar/galaxy-conqueror/badges/corsario-galactico",
    "imageUrl": "corsario-galactico.png",
    "description": "Se entrega a un jugador que ha capturado 50 extraterrestres, ha votado 25 galaxias candidatas, ha marcado 1 galaxia candidata, ha conquistado 1 galaxia y ha conseguido 1000 puntos",
    "criteria": [
      {
        "id": 1,
        "description": "points earned required",
        "required": 1,
        "note": "1000"
      },
      {
        "id": 2,
        "description": "aliens hunted required",
        "required": 1,
        "note": "50"
      },
      {
        "id": 3,
        "description": "votes required",
        "required": 1,
        "note": "25"
      },
      {
        "id": 4,
        "description": "galaxies marked required",
        "required": 1,
        "note": "1"
      },
      {
        "id": 5,
        "description": "galaxies discovered required",
        "required": 1,
        "note": "1"
      }
    ]
  },
  {
    "name": "Explorador estelar de &eacute;lite",
    "criteriaUrl": "https://cientopolis.lifia.info.unlp.edu.ar/galaxy-conqueror/badges/explorador-estelar-de-elite",
    "description": "Se entrega a un jugador que ha capturado 50 extraterrestres, ha votado 25 galaxias candidatas, ha marcado 2 galaxias candidata, ha conquistado 2 galaxias y ha conseguido 2000 puntos",
    "imageUrl": "explorador-estelar-de-elite.png",
    "criteria": [
      {
        "id": 1,
        "description": "points earned required",
        "required": 1,
        "note": "2000"
      },
      {
        "id": 2,
        "description": "aliens hunted required",
        "required": 1,
        "note": "50"
      },
      {
        "id": 3,
        "description": "votes required",
        "required": 1,
        "note": "25"
      },
      {
        "id": 4,
        "description": "galaxies marked required",
        "required": 1,
        "note": "2"
      },
      {
        "id": 5,
        "description": "galaxies discovered required",
        "required": 1,
        "note": "2"
      }
    ]
  },
  {
    "name": "Conquistador gal&aacute;ctico",
    "criteriaUrl": "https://cientopolis.lifia.info.unlp.edu.ar/galaxy-conqueror/badges/conquistador-galactico",
    "imageUrl": "conquistador-galactico.png",
    "description": "Se entrega a un jugador que ha capturado 50 extraterrestres, ha votado 25 galaxias candidatas, ha marcado 3 galaxias candidata, ha conquistado 3 galaxias y ha conseguido 3000 puntos",
    "criteria": [
      {
        "id": 1,
        "description": "points earned required",
        "required": 1,
        "note": "3000"
      },
      {
        "id": 2,
        "description": "aliens hunted required",
        "required": 1,
        "note": "50"
      },
      {
        "id": 3,
        "description": "votes required",
        "required": 1,
        "note": "25"
      },
      {
        "id": 4,
        "description": "galaxies marked required",
        "required": 1,
        "note": "3"
      },
      {
        "id": 5,
        "description": "galaxies discovered required",
        "required": 1,
        "note": "3"
      }
    ]
  },
  {
    "name": "Emperador gal&aacute;ctico",
    "criteriaUrl": "https://cientopolis.lifia.info.unlp.edu.ar/galaxy-conqueror/badges/emperador-galactico",
    "imageUrl": "emperador-galactico.png",
    "description": "Se entrega a un jugador que ha capturado 50 extraterrestres, ha votado 25 galaxias candidatas, ha marcado 5 galaxias candidata, ha conquistado 5 galaxias y ha conseguido 4000 puntos",
    "criteria": [
      {
        "id": 1,
        "description": "points earned required",
        "required": 1,
        "note": "4000"
      },
      {
        "id": 2,
        "description": "aliens hunted required",
        "required": 1,
        "note": "50"
      },
      {
        "id": 3,
        "description": "votes required",
        "required": 1,
        "note": "25"
      },
      {
        "id": 4,
        "description": "galaxies marked required",
        "required": 1,
        "note": "5"
      },
      {
        "id": 5,
        "description": "galaxies discovered required",
        "required": 1,
        "note": "5"
      }
    ]
  }
]
